{
  "orientation" : 0,
  "updateDelay" : 0.3,
  "cachedDeviceHeight" : 0,
  "contentScale" : 1,
  "cachedDeviceWidth" : 0,
  "sharedPrototype" : true,
  "propertyPanelToggleStates" : {

  },
  "deviceType" : "fullscreen",
  "projectId" : "1B868C19-8DA9-4055-963B-8E609BC82372",
  "deviceOrientation" : 0,
  "selectedHand" : "",
  "foldedCodeRanges" : [

  ],
  "deviceScale" : 1
}