{
  "orientation" : 0,
  "updateDelay" : 0.29999999999999999,
  "designModeSelected" : 0,
  "cachedDeviceHeight" : 0,
  "contentScale" : 1,
  "cachedDeviceWidth" : 0,
  "deviceType" : "fullscreen",
  "sharedPrototype" : true,
  "propertyPanelToggleStates" : {

  },
  "projectId" : "D0C9CAE1-F13A-41F1-A9EA-4ADD9E3A9215",
  "deviceOrientation" : 0,
  "selectedHand" : "",
  "showBezel" : 0,
  "foldedCodeRanges" : [

  ],
  "deviceScale" : 1
}