{
  "_class": "group",
  "do_objectID": "3A68FC9B-B1A3-4E2B-BFDC-FA4281C51721",
  "exportOptions": {
    "_class": "exportOptions",
    "exportFormats": [
    ],
    "includedLayerIds": [
    ],
    "layerOptions": 0,
    "shouldTrim": false
  },
  "frame": {
    "_class": "rect",
    "constrainProportions": false,
    "height": 51,
    "width": 98,
    "x": 267,
    "y": 0
  },
  "hasClickThrough": false,
  "isFlippedHorizontal": false,
  "isFlippedVertical": false,
  "isLocked": false,
  "isVisible": true,
  "layerListExpandedType": 0,
  "layers": [
    {
      "class": "shapeGroup",
      "id": "AA40421B-A07C-41EC-A850-615DF9857C53"
    },
    {
      "class": "shapeGroup",
      "id": "3ED2538B-6492-4B66-B33C-7FE47C130715"
    },
    {
      "class": "shapeGroup",
      "id": "D225E7A6-BC14-4809-A8C3-737544A56C31"
    },
    {
      "class": "shapeGroup",
      "id": "45DCF7AB-8D4F-4B98-B205-40B15012D32C"
    },
    {
      "class": "shapeGroup",
      "id": "32BCD7F7-0D0F-4C8D-80FC-3C4E6FFD8BA6"
    },
    {
      "class": "group",
      "id": "36CB8264-ED5B-4421-AE8A-1C79788581FD"
    },
    {
      "class": "text",
      "id": "6A975DB5-57E9-49A7-AD47-A4F25B5D0CE5"
    }
  ],
  "name": "changes",
  "nameIsFixed": true,
  "resizingConstraint": 44,
  "resizingType": 1,
  "rotation": 0,
  "shouldBreakMaskChain": false,
  "style": {
    "_class": "style",
    "endDecorationType": 0,
    "miterLimit": 10,
    "startDecorationType": 0
  }
}