{
  "_class": "group",
  "do_objectID": "FE8966CF-07F9-4E80-8222-70282FD2CBAD",
  "exportOptions": {
    "_class": "exportOptions",
    "exportFormats": [
    ],
    "includedLayerIds": [
    ],
    "layerOptions": 0,
    "shouldTrim": false
  },
  "frame": {
    "_class": "rect",
    "constrainProportions": false,
    "height": 28,
    "width": 527,
    "x": 607,
    "y": 1012
  },
  "hasClickThrough": false,
  "isFlippedHorizontal": false,
  "isFlippedVertical": false,
  "isLocked": false,
  "isVisible": true,
  "layerListExpandedType": 2,
  "layers": [
    {
      "class": "shapeGroup",
      "id": "8EB83309-F419-4800-994C-C6FB755A2776"
    },
    {
      "class": "shapeGroup",
      "id": "5C480DCF-CDF1-4DBE-9506-B5FBC79E2DD6"
    },
    {
      "class": "shapeGroup",
      "id": "81A632E7-FFA1-4088-87FD-8447A16DA4ED"
    },
    {
      "class": "shapeGroup",
      "id": "FC884375-3542-4B29-B4D1-52AD4C3CAE76"
    },
    {
      "class": "text",
      "id": "4CEEA88D-714B-4777-8DFA-30C8800967DD"
    }
  ],
  "name": "new_epic copy 11",
  "nameIsFixed": true,
  "resizingConstraint": 63,
  "resizingType": 0,
  "rotation": 0,
  "shouldBreakMaskChain": false,
  "style": {
    "_class": "style",
    "endDecorationType": 0,
    "miterLimit": 10,
    "startDecorationType": 0
  }
}