{
  "_class": "group",
  "do_objectID": "9A3858AC-3976-4A1C-A58F-13B7057D034B",
  "exportOptions": {
    "_class": "exportOptions",
    "exportFormats": [
    ],
    "includedLayerIds": [
    ],
    "layerOptions": 0,
    "shouldTrim": false
  },
  "frame": {
    "_class": "rect",
    "constrainProportions": false,
    "height": 82,
    "width": 1295,
    "x": 344,
    "y": 71
  },
  "hasClickThrough": false,
  "isFlippedHorizontal": false,
  "isFlippedVertical": false,
  "isLocked": false,
  "isVisible": true,
  "layerListExpandedType": 0,
  "layers": [
    {
      "class": "shapeGroup",
      "id": "F8292253-768E-4888-AA3E-EB7A0E6E5162"
    },
    {
      "class": "shapeGroup",
      "id": "E9E1BF37-9980-4CCB-AFBA-FDD8CB9C0C59"
    },
    {
      "class": "symbolInstance",
      "id": "BD062D4B-8B1B-408E-99A3-ED9137CCBCCA"
    },
    {
      "class": "symbolInstance",
      "id": "CA7BED11-BBE5-451E-9C61-7FDE19DDEB21"
    },
    {
      "class": "symbolInstance",
      "id": "77DFD2A0-D9B5-4276-9EC6-05714ECA48E3"
    },
    {
      "class": "symbolInstance",
      "id": "3D5D9360-50FE-4CF2-88AA-B7EC9150468E"
    },
    {
      "class": "shapeGroup",
      "id": "3C11F701-F6D6-462A-B9BE-98D7137B7EA6"
    },
    {
      "class": "symbolInstance",
      "id": "E66F3E35-100E-4F94-9456-1530FB90512E"
    },
    {
      "class": "symbolInstance",
      "id": "7333C246-800C-4203-8BEB-801C5158DA88"
    },
    {
      "class": "symbolInstance",
      "id": "E89AAAFD-F62D-4660-A4FC-D4A31E1679D5"
    },
    {
      "class": "symbolInstance",
      "id": "FDA95FB2-B8CB-4EA1-934F-F8EBF6737AFE"
    },
    {
      "class": "symbolInstance",
      "id": "55A18877-3AD0-4928-9DC3-48EEED4A7C43"
    },
    {
      "class": "symbolInstance",
      "id": "B6C24C44-6616-4F8B-AC47-D5335432F903"
    },
    {
      "class": "symbolInstance",
      "id": "70021601-1784-434E-9DDB-1A62A6A7265F"
    },
    {
      "class": "symbolInstance",
      "id": "E8FF7E81-C390-4499-AE72-E2C5CC359AA6"
    },
    {
      "class": "symbolInstance",
      "id": "F0BFDB8A-80E5-46EB-A91E-EA57DE08DEF1"
    },
    {
      "class": "symbolInstance",
      "id": "88C45B3D-C92F-4ED4-921C-E98A5E5F0320"
    },
    {
      "class": "symbolInstance",
      "id": "3E99815D-FF37-42AA-9EA8-E79A48332A9B"
    },
    {
      "class": "symbolInstance",
      "id": "4B53D3A8-E500-482D-B3CA-E10CE06D8373"
    },
    {
      "class": "symbolInstance",
      "id": "F4A3743D-CFDB-433D-84FE-A0FC631E9E6C"
    },
    {
      "class": "symbolInstance",
      "id": "420D3B58-8BAD-40C3-98AB-5BB8E07C848B"
    },
    {
      "class": "symbolInstance",
      "id": "E7994C6B-4E7F-4538-BADF-B689A1F155C5"
    },
    {
      "class": "symbolInstance",
      "id": "AA8D2784-F3E9-407F-A3C5-94C8854D3066"
    },
    {
      "class": "symbolInstance",
      "id": "F755FF2A-6521-4A79-969B-304CFA61ECF1"
    },
    {
      "class": "symbolInstance",
      "id": "FE307DAE-1A1C-42FC-9AB5-E2BAD08ABB29"
    },
    {
      "class": "symbolInstance",
      "id": "F0C8290E-F830-47CF-9B6A-B505D5289CDB"
    },
    {
      "class": "symbolInstance",
      "id": "97B28925-9665-4695-815A-BCAD0F1C237D"
    },
    {
      "class": "symbolInstance",
      "id": "21C2C4ED-5CC7-4ABB-822A-6428ACF81524"
    },
    {
      "class": "symbolInstance",
      "id": "5FA9A782-FC74-415B-A8AC-AA5FBAE3A6D6"
    },
    {
      "class": "symbolInstance",
      "id": "7476D690-FD9E-45D9-9B81-8D9401826DDA"
    },
    {
      "class": "symbolInstance",
      "id": "73B95DA0-35ED-45EC-9C73-2968200DE74C"
    },
    {
      "class": "symbolInstance",
      "id": "C117D82A-88F6-4C00-B5EF-32B50BBCCF89"
    },
    {
      "class": "symbolInstance",
      "id": "FF643041-F0D0-457A-9C2F-8B28AEAA459D"
    },
    {
      "class": "symbolInstance",
      "id": "64248E10-1D86-4F1C-AB67-FFA533983C04"
    },
    {
      "class": "symbolInstance",
      "id": "F409010F-975E-43F2-9298-41D6D1D4BCC9"
    },
    {
      "class": "symbolInstance",
      "id": "92696A7F-D65D-455C-969E-81AF032C45C8"
    },
    {
      "class": "symbolInstance",
      "id": "0D5D7062-69A9-4E1D-8C1D-28C8822C2C93"
    },
    {
      "class": "symbolInstance",
      "id": "3396542D-36F9-4D1F-B276-1E85A4989790"
    },
    {
      "class": "symbolInstance",
      "id": "3271ED4E-B5DA-4F30-BE07-7EF0249021A0"
    },
    {
      "class": "symbolInstance",
      "id": "C05B6355-C13E-471E-9A42-B41EB94F6FA5"
    },
    {
      "class": "symbolInstance",
      "id": "CEC2F56A-7D10-4974-9054-63BC2DA10ADD"
    },
    {
      "class": "symbolInstance",
      "id": "E3BBF77D-2FE7-4CA1-B24C-FC339A97E84B"
    },
    {
      "class": "symbolInstance",
      "id": "92839C9B-B942-46E7-8E8B-32BF54039B9A"
    },
    {
      "class": "symbolInstance",
      "id": "5082C842-20A4-4DAE-8745-2367BF44F99F"
    },
    {
      "class": "symbolInstance",
      "id": "EC386769-F76C-4EA2-B38F-4F99DE44F1B1"
    },
    {
      "class": "symbolInstance",
      "id": "CA0412E0-BC57-4710-AFB7-DB6AB17D2B18"
    },
    {
      "class": "symbolInstance",
      "id": "AA1BDAA4-D9CF-4D66-84A6-3908076221BE"
    },
    {
      "class": "symbolInstance",
      "id": "42D3BC38-BB7E-482F-9AA6-9B1BC89CFD20"
    },
    {
      "class": "symbolInstance",
      "id": "B919C30C-62B2-4AF8-B286-9D3C1F43217A"
    },
    {
      "class": "symbolInstance",
      "id": "FF173EAD-D060-456A-BA34-191548BF2FCE"
    },
    {
      "class": "symbolInstance",
      "id": "91F22BBA-3A87-4B1B-B8E5-4AB0F379176A"
    },
    {
      "class": "symbolInstance",
      "id": "619D2DB8-4721-40F2-853B-D4F13BFB21E1"
    },
    {
      "class": "symbolInstance",
      "id": "A6D63423-12E0-48FA-B771-77D744C08B03"
    },
    {
      "class": "symbolInstance",
      "id": "09CA285F-4846-4290-9753-9B317835DEC4"
    },
    {
      "class": "symbolInstance",
      "id": "AD019F03-638E-49BC-B285-DF08C5788CFE"
    },
    {
      "class": "symbolInstance",
      "id": "53C6BF6E-A9AF-4630-8043-644E793301BA"
    },
    {
      "class": "symbolInstance",
      "id": "339B2A39-338D-4704-83F9-2111204A88C9"
    },
    {
      "class": "symbolInstance",
      "id": "7FAE0CF9-C26C-42F9-95E7-2AAC11F3D742"
    },
    {
      "class": "symbolInstance",
      "id": "A1809390-9AF9-4EB7-B54F-F0C566EA6D39"
    },
    {
      "class": "symbolInstance",
      "id": "F106A661-D962-4079-B98C-902869839D13"
    },
    {
      "class": "symbolInstance",
      "id": "3A413AE9-D205-46D1-A6BE-CBE17DDE8FC7"
    }
  ],
  "name": "timeline",
  "nameIsFixed": true,
  "resizingConstraint": 63,
  "resizingType": 0,
  "rotation": 0,
  "shouldBreakMaskChain": false,
  "style": {
    "_class": "style",
    "endDecorationType": 0,
    "miterLimit": 10,
    "startDecorationType": 0
  }
}