{
  "_class": "group",
  "do_objectID": "DB48105C-F63B-42FB-A194-7E4FCFBD03F3",
  "exportOptions": {
    "_class": "exportOptions",
    "exportFormats": [
    ],
    "includedLayerIds": [
    ],
    "layerOptions": 0,
    "shouldTrim": false
  },
  "frame": {
    "_class": "rect",
    "constrainProportions": false,
    "height": 28,
    "width": 527,
    "x": 607,
    "y": 302
  },
  "hasClickThrough": false,
  "isFlippedHorizontal": false,
  "isFlippedVertical": false,
  "isLocked": false,
  "isVisible": true,
  "layerListExpandedType": 2,
  "layers": [
    {
      "class": "shapeGroup",
      "id": "30FBB8A3-1289-4115-BF37-F11CA34CA853"
    },
    {
      "class": "shapeGroup",
      "id": "91CFEFF7-54CA-483A-8471-BD4FBD89578D"
    },
    {
      "class": "text",
      "id": "5A599FCD-0716-4070-92C9-7D34B8F8C17D"
    }
  ],
  "name": "new_epic",
  "nameIsFixed": true,
  "resizingConstraint": 63,
  "resizingType": 0,
  "rotation": 0,
  "shouldBreakMaskChain": false,
  "style": {
    "_class": "style",
    "endDecorationType": 0,
    "miterLimit": 10,
    "startDecorationType": 0
  }
}