{
  "_class": "group",
  "do_objectID": "EC8E2488-D1F4-413A-B44D-091DE17AFCD4",
  "exportOptions": {
    "_class": "exportOptions",
    "exportFormats": [
    ],
    "includedLayerIds": [
    ],
    "layerOptions": 0,
    "shouldTrim": false
  },
  "frame": {
    "_class": "rect",
    "constrainProportions": false,
    "height": 2097,
    "width": 97,
    "x": 462,
    "y": 120
  },
  "hasClickThrough": false,
  "isFlippedHorizontal": false,
  "isFlippedVertical": false,
  "isLocked": false,
  "isVisible": true,
  "layerListExpandedType": 0,
  "layers": [
    {
      "class": "shapeGroup",
      "id": "EC3F93DC-E5A1-47F0-803D-61F57869AA10"
    },
    {
      "class": "shapeGroup",
      "id": "C75F35D6-0939-4347-9719-1C3D43D7AB49"
    },
    {
      "class": "shapeGroup",
      "id": "11154090-D1D5-4FBF-BAE3-D175C0CD37DA"
    },
    {
      "class": "shapeGroup",
      "id": "F16B224A-233E-42FC-A151-5338976765C8"
    },
    {
      "class": "group",
      "id": "50207D5E-9F89-43A3-AB72-BC6DF10CFAF4"
    }
  ],
  "name": "milestone copy",
  "nameIsFixed": true,
  "resizingConstraint": 63,
  "resizingType": 0,
  "rotation": 0,
  "shouldBreakMaskChain": false,
  "style": {
    "_class": "style",
    "endDecorationType": 0,
    "miterLimit": 10,
    "startDecorationType": 0
  }
}