{
  "_class": "shapePath",
  "booleanOperation": -1,
  "do_objectID": "F2955CD9-4DF1-4DD1-B38B-6D0E72B765DC",
  "edited": true,
  "exportOptions": {
    "_class": "exportOptions",
    "exportFormats": [
    ],
    "includedLayerIds": [
    ],
    "layerOptions": 0,
    "shouldTrim": false
  },
  "frame": {
    "_class": "rect",
    "constrainProportions": false,
    "height": 1.5,
    "width": 7.111111111111109,
    "x": 0,
    "y": 0
  },
  "isFlippedHorizontal": false,
  "isFlippedVertical": false,
  "isLocked": false,
  "isVisible": true,
  "layerListExpandedType": 0,
  "name": "Path",
  "nameIsFixed": false,
  "path": {
    "_class": "path",
    "isClosed": true,
    "pointRadiusBehaviour": 1,
    "points": [
      {
        "_class": "curvePoint",
        "cornerRadius": 0,
        "curveFrom": "{0, 0.22385762510000004}",
        "curveMode": 2,
        "curveTo": "{0, 0.77806758880615234}",
        "hasCurveFrom": true,
        "hasCurveTo": true,
        "point": "{0, 0.5}"
      },
      {
        "_class": "curvePoint",
        "cornerRadius": 0,
        "curveFrom": "{0.094077572226524353, 0}",
        "curveMode": 4,
        "curveTo": "{0.04296875, 0}",
        "hasCurveFrom": false,
        "hasCurveTo": true,
        "point": "{0.094077572226524353, 0}"
      },
      {
        "_class": "curvePoint",
        "cornerRadius": 0,
        "curveFrom": "{0.95788003621239304, 0}",
        "curveMode": 4,
        "curveTo": "{0.90592242777347565, 0}",
        "hasCurveFrom": true,
        "hasCurveTo": false,
        "point": "{0.90592242777347565, 0}"
      },
      {
        "_class": "curvePoint",
        "cornerRadius": 0,
        "curveFrom": "{1, 0.77614237490000004}",
        "curveMode": 2,
        "curveTo": "{1, 0.22193241119384766}",
        "hasCurveFrom": true,
        "hasCurveTo": true,
        "point": "{1, 0.5}"
      },
      {
        "_class": "curvePoint",
        "cornerRadius": 0,
        "curveFrom": "{0.90592242777347565, 1}",
        "curveMode": 4,
        "curveTo": "{0.95703125, 1}",
        "hasCurveFrom": false,
        "hasCurveTo": true,
        "point": "{0.90592242777347565, 1}"
      },
      {
        "_class": "curvePoint",
        "cornerRadius": 0,
        "curveFrom": "{0.042119963787606927, 1}",
        "curveMode": 4,
        "curveTo": "{0.094077572226524353, 1}",
        "hasCurveFrom": true,
        "hasCurveTo": false,
        "point": "{0.094077572226524353, 1}"
      }
    ]
  },
  "resizingConstraint": 63,
  "resizingType": 0,
  "rotation": 0,
  "shouldBreakMaskChain": false
}