{
  "_class": "symbolInstance",
  "do_objectID": "A0DDC85C-7916-4C5E-9CD3-FCC0AD6070E0",
  "exportOptions": {
    "_class": "exportOptions",
    "exportFormats": [
    ],
    "includedLayerIds": [
    ],
    "layerOptions": 0,
    "shouldTrim": false
  },
  "frame": {
    "_class": "rect",
    "constrainProportions": false,
    "height": 40,
    "width": 220,
    "x": 0,
    "y": 368
  },
  "horizontalSpacing": 0,
  "isFlippedHorizontal": false,
  "isFlippedVertical": false,
  "isLocked": false,
  "isVisible": true,
  "layerListExpandedType": 0,
  "masterInfluenceEdgeMaxXPadding": 1,
  "masterInfluenceEdgeMaxYPadding": 1,
  "masterInfluenceEdgeMinXPadding": 0,
  "masterInfluenceEdgeMinYPadding": 0,
  "name": "sidebar/molecules/menu-item/",
  "nameIsFixed": true,
  "overrides": {
    "15654E37-957C-42B5-8981-C4F1B5B12658": {
      "6979CBE4-EB0A-4E40-AC15-4B01172AE85D": {
        "symbolID": "EAB165A5-6100-4D37-9D0B-ED03DA773770"
      },
      "95AFEDD0-8BE0-42B0-8D01-7C823E6D142E": {
        "symbolID": "5A49560B-8379-495D-95CB-DDEB53CA71BE"
      },
      "97D855D6-79F4-4167-8F3A-59C10ADCA006": {
        "symbolID": "82060AFB-5C5F-4178-A8BD-C12F1F115034"
      },
      "symbolID": "2F3AAF97-BD52-4DA4-987A-20D52B12A49D"
    },
    "69B9D507-A5EB-45D9-81F5-4C6E1AAB425A": {
      "7B3078E7-F805-4EE8-8848-5FA084C6A7B7": "Settings",
      "9505DB84-2594-410F-BAC6-F8A173ACEADD": {
        "symbolID": ""
      },
      "A2A022FF-7C80-411C-8C24-E06CA8249433": "Settings",
      "FB150F4B-17F2-4F09-96C6-AEDDAD8D8DFC": {
        "symbolID": ""
      }
    }
  },
  "resizingConstraint": 63,
  "resizingType": 0,
  "rotation": 0,
  "shouldBreakMaskChain": false,
  "style": {
    "_class": "style",
    "endDecorationType": 0,
    "miterLimit": 10,
    "startDecorationType": 0
  },
  "symbolID": "42FC1E5F-60CA-4B2C-8A9E-AC9131844DB4",
  "verticalSpacing": 0
}