{
  "_class": "group",
  "do_objectID": "33F457D8-4F58-4508-8019-C39BEB089005",
  "exportOptions": {
    "_class": "exportOptions",
    "exportFormats": [
    ],
    "includedLayerIds": [
    ],
    "layerOptions": 0,
    "shouldTrim": false
  },
  "frame": {
    "_class": "rect",
    "constrainProportions": false,
    "height": 40,
    "width": 1500,
    "x": 0,
    "y": 0
  },
  "hasClickThrough": false,
  "isFlippedHorizontal": false,
  "isFlippedVertical": false,
  "isLocked": false,
  "isVisible": true,
  "layerListExpandedType": 1,
  "layers": [
    {
      "class": "shapeGroup",
      "id": "3BE7014B-8926-498D-BB2C-A0E424AE00FD"
    },
    {
      "class": "group",
      "id": "D6F51189-A257-4978-AE2A-EC1064CB60A3"
    },
    {
      "class": "group",
      "id": "0AE50AD0-EB2A-43FF-90A2-54B9AB590DEB"
    }
  ],
  "name": "topbar",
  "nameIsFixed": true,
  "resizingConstraint": 63,
  "resizingType": 0,
  "rotation": 0,
  "shouldBreakMaskChain": false,
  "style": {
    "_class": "style",
    "endDecorationType": 0,
    "miterLimit": 10,
    "startDecorationType": 0
  }
}